{
    "cordova-plugin-camera": {
        "source": {
            "type": "git",
            "url": "https://git-wip-us.apache.org/repos/asf/cordova-plugin-camera.git",
            "subdir": "."
        }
    },
    "cordova-plugin-file": {
        "source": {
            "type": "git",
            "url": "https://git-wip-us.apache.org/repos/asf/cordova-plugin-file.git",
            "subdir": "."
        }
    }
}